{
    "cloudwatch_pub_topic":"cloudwatch/metric/put",
    "aws_iot_cert_folder" : "device_certs",
    "port" : "8883",
    "pub_topic": "<AWS_IOT_PUBLISH_TOPIC>",
    "cloudwatch_namespace":"<CLOUDWATCH_NAMESPACE>",
    "iot_endpoint" : "<AWS_IOT_ENDPOINT>"
}
