{
"Device_1":"Device_1",
"Dev_link_1":"http://<IP_ADDRESS_OF_DEVICE_1>:5000",
"Device_2":"Device_2",
"Dev_link_2":"http://<IP_ADDRESS_OF_DEVICE_2>:5000",

"Device_3":"<DEVICE_NAME_3____EDIT_THIS_VALUE_ONLY_WHEN_ADDING_3RD_DEVICE_TO_WEB_UI>",
"Dev_link_3":"<IP_ADDRESS_FOR_DEVICE_3>"
}
